{
	"components":["status"],
	"display":
	{
		"icon":"object-group",
		"fields":"title"
	},
	"fields":
	{
		"title":
		{
			"rules":"required",
			"list":true,
			"filter":true
		},
		"pictures":
		{
			"type":"json"
		}
	}
}