{
	"auth":
	{
		"role":"admin"
	},
	"display":
	{
		"icon":"bars",
		"fields":"label",
		"plural":"Menus"
	},
	"fields":
	{
		"code":
		{
			"list":true,
			"rules":["required","regex:/^[a-z0-9_\\.]{3,}$/"],
			"unique":true
		},
		"label":
		{
			"list":true,
			"rules":["required"]
		},
		"config":
		{
			"type":"json"
		}
	}
}