{
	"components":["nestable"],
	"auth":
	{
		"actions":
		{
			"create":{"role":"contributor"},
			"edit":{"role":"editor"},
			"truncate":false,
			"destroy":
			{
				"role":"admin",
				"bulk":true
			}
		}
	},
	"display":
	{
		"icon":"tags",
		"fields":"name"
	},
	"system":
	{
		"suggestions":["name"]
	},
	"fields":
	{
		"name":
		{
			"rules":"required|min:3",
			"list":true,
			"filter":true
		},
		"slug":
		{
			"type":"slug",
			"source":"name",
			"list":true
		},
		"posts":
		{
			"type":"macro",
			"column":false,
			"list":true,
			"macro":
			{
				"name":"countRelations",
				"params":
				{
					"relationType":"morphedByMany",
					"model":"posts",
					"name":"taggable"
				}
			}
		}
	}
}